{
  "puppet_task_version": 1,
  "supports_noop": false,
  "description": "finds all deactivated nodes",
  "parameters": {
    "module_environment": {
      "description": "The name of the environment to load the task from",
      "default": "production",
      "type": "String"
    }
  },
  "files": ["pe_tasks/files/pe_task_helper.rb"],
  "input_method": "stdin"
}
